%YAML 1.1
%TAG !u! tag:unity3d.com,2011:
--- !u!21 &2100000
Material:
  serializedVersion: 6
  m_ObjectHideFlags: 0
  m_CorrespondingSourceObject: {fileID: 0}
  m_PrefabInstance: {fileID: 0}
  m_PrefabAsset: {fileID: 0}
  m_Name: skybox2
  m_Shader: {fileID: 4800000, guid: fcd19e2e342ddc84a9aa06b0767a0e61, type: 3}
  m_ShaderKeywords: _MAPPING_LATITUDE_LONGITUDE_LAYOUT _SUNDISK_HIGH_QUALITY
  m_LightmapFlags: 4
  m_EnableInstancingVariants: 0
  m_DoubleSidedGI: 0
  m_CustomRenderQueue: -1
  stringTagMap: {}
  disabledShaderPasses: []
  m_SavedProperties:
    serializedVersion: 3
    m_TexEnvs:
    - _BaseNoise:
        m_Texture: {fileID: 2800000, guid: b5f654906b71de944837e2a5debf8066, type: 3}
        m_Scale: {x: 1, y: 1}
        m_Offset: {x: 0, y: 0}
    - _BumpMap:
        m_Texture: {fileID: 0}
        m_Scale: {x: 1, y: 1}
        m_Offset: {x: 0, y: 0}
    - _DetailAlbedoMap:
        m_Texture: {fileID: 0}
        m_Scale: {x: 1, y: 1}
        m_Offset: {x: 0, y: 0}
    - _DetailMask:
        m_Texture: {fileID: 0}
        m_Scale: {x: 1, y: 1}
        m_Offset: {x: 0, y: 0}
    - _DetailNormalMap:
        m_Texture: {fileID: 0}
        m_Scale: {x: 1, y: 1}
        m_Offset: {x: 0, y: 0}
    - _Distort:
        m_Texture: {fileID: 2800000, guid: d05223ad3dac70c4784ad3001335f7d9, type: 3}
        m_Scale: {x: 1, y: 1}
        m_Offset: {x: 0, y: 0}
    - _EmissionMap:
        m_Texture: {fileID: 0}
        m_Scale: {x: 1, y: 1}
        m_Offset: {x: 0, y: 0}
    - _MainTex:
        m_Texture: {fileID: 0}
        m_Scale: {x: 1, y: 1}
        m_Offset: {x: 0, y: 0}
    - _MetallicGlossMap:
        m_Texture: {fileID: 0}
        m_Scale: {x: 1, y: 1}
        m_Offset: {x: 0, y: 0}
    - _OcclusionMap:
        m_Texture: {fileID: 0}
        m_Scale: {x: 1, y: 1}
        m_Offset: {x: 0, y: 0}
    - _ParallaxMap:
        m_Texture: {fileID: 0}
        m_Scale: {x: 1, y: 1}
        m_Offset: {x: 0, y: 0}
    - _SecNoise:
        m_Texture: {fileID: 2800000, guid: cda8f50b5411fd14e8251e0316a865db, type: 3}
        m_Scale: {x: 1, y: 1}
        m_Offset: {x: 0, y: 0}
    - _Stars:
        m_Texture: {fileID: 2800000, guid: 7b4743e833ed3f54fb0099aaf3c088fd, type: 3}
        m_Scale: {x: 1, y: 1}
        m_Offset: {x: 0, y: 0}
    m_Floats:
    - _AtmosphereThickness: 1
    - _BaseNoiseScale: 0.2
    - _Brightness: 1
    - _BumpScale: 1
    - _CloudCutoff: 0.5
    - _Cutoff: 0.5
    - _DetailNormalMapScale: 1
    - _DistortScale: 0.1
    - _Distortion: 1
    - _DstBlend: 0
    - _Exposure: 1
    - _FUZZY: 0
    - _Fuzziness: 0.1
    - _FuzzinessUnder: 0.1
    - _GlossMapScale: 1
    - _Glossiness: 0.5
    - _GlossyReflections: 1
    - _HorizonIntensity: 2
    - _ImageType: 0
    - _Layout: 0
    - _Mapping: 1
    - _Metallic: 0
    - _MirrorOnBack: 0
    - _Mode: 0
    - _MoonOffset: -0.02
    - _MoonRadius: 0.04
    - _OcclusionStrength: 1
    - _OffsetHorizon: -0.0625
    - _Parallax: 0.02
    - _Rotation: 0
    - _SecNoiseScale: 0.05
    - _SmoothnessTextureChannel: 0
    - _SpecularHighlights: 1
    - _Speed: 5
    - _SrcBlend: 1
    - _StarsCutoff: 0.3
    - _StarsSpeed: 0.2
    - _SunDisk: 2
    - _SunRadius: 0.075
    - _SunSize: 0.025
    - _SunSizeConvergence: 1
    - _UVSec: 0
    - _ZWrite: 1
    m_Colors:
    - _CloudColorDayEdge: {r: 0.8, g: 0.8, b: 0.8, a: 1}
    - _CloudColorDayMain: {r: 0.2, g: 0.2, b: 0.2, a: 1}
    - _CloudColorDayUnder: {r: 0.1, g: 0.1, b: 0.1, a: 1}
    - _CloudColorNightEdge: {r: 0.03137255, g: 0.023529412, b: 0.015686275, a: 1}
    - _CloudColorNightMain: {r: 0, g: 0, b: 0, a: 1}
    - _CloudColorNightUnder: {r: 0.023529412, g: 0.019607844, b: 0.015686275, a: 1}
    - _Color: {r: 1, g: 1, b: 1, a: 1}
    - _DayBottomColor: {r: 1, g: 1, b: 1, a: 1}
    - _DayTopColor: {r: 0, g: 0, b: 0, a: 1}
    - _EmissionColor: {r: 0, g: 0, b: 0, a: 1}
    - _GroundColor: {r: 0.75, g: 0.875, b: 1, a: 1}
    - _HorizonColorDay: {r: 0.5, g: 0.5, b: 0.5, a: 1}
    - _HorizonColorNight: {r: 0.1, g: 0.05, b: 0, a: 1}
    - _MoonColor: {r: 0.7490196, g: 0.7490196, b: 0.7490196, a: 1}
    - _NightBottomColor: {r: 0.050980393, g: 0.038235296, b: 0.025490196, a: 1}
    - _NightTopColor: {r: 0.050980393, g: 0.023529414, b: 0, a: 1}
    - _SkyTint: {r: 0.37647063, g: 0.43921572, b: 0.5019608, a: 1}
    - _StarsSkyColor: {r: 0.0375, g: 0.0375, b: 0.05, a: 1}
    - _SunColor: {r: 1, g: 0, b: 0, a: 1}
    - _SunSet: {r: 1, g: 1, b: 1, a: 1}
    - _Tint: {r: 0.5, g: 0.5, b: 0.5, a: 0.5}
